21.3,2022-01-26,21.3.5,Eric Engestrom,
,2022-02-09,21.3.6,Eric Engestrom,
,2022-02-23,21.3.7,Eric Engestrom,Last planned 21.3.x release.
22.0,2022-02-02,22.0.0-rc1,Dylan Baker
,2022-02-09,22.0.0-rc2,Dylan Baker
,2022-02-16,22.0.0-rc3,Dylan Baker
,2022-02-22,22.0.0-rc4,Dylan Baker,Or 22.0.0 final.
